{
  "name": "nrvale0-istartup",
  "version": "0.1.0",
  "author": "Nathan Valentine - <nrvale0@gmail.com|nathan@puppetlabs.com>",
  "summary": "Site module for Imaginary Startup",
  "license": "Apache-2.0",
  "source": "https://github.com/nrvale0/puppet-istartup",
  "project_page": "https://github.com/nrvale0/puppet-istartup",
  "issues_url": "https://github.com/nrvale0/puppet-istartup/issues",
  "dependencies": [
    {
      "name": "puppetlabs-stdlib",
      "version_requirement": ">= 4.5.1"
    },
    {
      "name": "puppetlabs-ntp",
      "version_requirement": ">= 3.3.0"
    },
    {
      "name": "stahnma-epel",
      "version_requirement": ">= 1.0.2"
    }
  ],
  "operatingsystem_support": [
    {
      "operatingsystem": "Ubuntu",
      "operatingsystemrelease": [
        "14.04",
      ]
    },
    {
      "operatingsystem": "RedHat",
      "operatingsystemrelease": [
        "6",
        "7"
      ]
    },
    {
      "operatingsystem": "CentOS",
      "operatingsystemrelease": [
        "6",
        "7"
      ]
    }

  ]
}
